"BehaviorId","BehaviorLabel","Determinant","Mean"
"brushingTeeth","Brush teeth","Attitude",4.83293838862559
"coffee","Quit coffee","Attitude",3.0661938534279
"conSomebody","Con somebody","Attitude",1.15448113207547
"longShower","Long showers","Attitude",3.19905213270142
"marathon","Run marathon","Attitude",1.86879432624113
"publicTransport","Public transport","Attitude",2.76241134751773
"runRedLight","Run red light","Attitude",2.0414691943128
"wasteSeparation","Separate waste","Attitude",3.98341232227488
"brushingTeeth","Brush teeth","Norms",4.75592417061611
"coffee","Quit coffee","Norms",3.14302600472813
"conSomebody","Con somebody","Norms",1.12028301886792
"longShower","Long showers","Norms",2.65284360189573
"marathon","Run marathon","Norms",2.59574468085106
"publicTransport","Public transport","Norms",3.39479905437352
"runRedLight","Run red light","Norms",2.32109004739337
"wasteSeparation","Separate waste","Norms",3.99881516587678
"brushingTeeth","Brush teeth","PBC",4.91706161137441
"coffee","Quit coffee","PBC",4.59574468085106
"conSomebody","Con somebody","PBC",3.22287735849057
"longShower","Long showers","PBC",4.49052132701422
"marathon","Run marathon","PBC",3.34160756501182
"publicTransport","Public transport","PBC",4.20330969267139
"runRedLight","Run red light","PBC",4.31516587677725
"wasteSeparation","Separate waste","PBC",4.5154028436019
